{
  "data" : [
    {
      "id" : "vc_0101V",
      "type" : "va_facilities",
      "attributes" : {
        "name" : "Boston Vet Center",
        "facility_type" : "vet_center",
        "parent" : {
          "id" : "vc_0101",
          "link" : "http://localhost:8085/v1/facilities/vc_0101"
        },
        "website" : "https://www.va.gov/boston-vet-center/",
        "lat" : 42.3445959,
        "long" : -71.03610511,
        "time_zone" : "America/New_York",
        "address" : {
          "physical" : {
            "zip" : "02210-2303",
            "city" : "Boston",
            "state" : "MA",
            "address_1" : "7 Drydock Avenue",
            "address_2" : "Suite 2070"
          }
        },
        "phone" : {
          "fax" : "617-261-3547",
          "main" : "857-203-6461"
        },
        "hours" : {
          "Monday" : "830AM-700PM",
          "Tuesday" : "830AM-700PM",
          "Wednesday" : "830AM-600PM",
          "Thursday" : "830AM-600PM",
          "Friday" : "830AM-430PM",
          "Saturday" : "Closed",
          "Sunday" : "Closed"
        },
        "operational_hours_special_instructions" : [
          "More hours are available for some services. To learn more, call our main phone number."
        ],
        "mobile" : false,
        "active_status" : "A",
        "operating_status" : {
          "code" : "NORMAL"
        },
        "visn" : "1"
      }
    },
    {
      "id" : "vc_0102V",
      "type" : "va_facilities",
      "attributes" : {
        "name" : "Secaucus Vet Center",
        "facility_type" : "vet_center",
        "lat" : 40.78920056,
        "long" : -74.07387396,
        "time_zone" : "America/New_York",
        "address" : {
          "physical" : {
            "zip" : "07094-2302",
            "city" : "Secaucus",
            "state" : "NJ",
            "address_1" : "110A Meadowlands Parkway",
            "address_2" : "Suite 102"
          }
        },
        "phone" : {
          "fax" : "201-223-7707",
          "main" : "201-223-7787"
        },
        "hours" : {
          "Monday" : "700AM-830PM",
          "Tuesday" : "700AM-830PM",
          "Wednesday" : "700AM-800PM",
          "Thursday" : "700AM-530PM",
          "Friday" : "700AM-430PM",
          "Saturday" : "Closed",
          "Sunday" : "Closed"
        },
        "operational_hours_special_instructions" : [
          "More hours are available for some services. To learn more, call our main phone number."
        ],
        "mobile" : false,
        "active_status" : "A",
        "operating_status" : {
          "code" : "NORMAL"
        },
        "visn" : "2"
      }
    },
    {
      "id" : "vc_0103V",
      "type" : "va_facilities",
      "attributes" : {
        "name" : "Springfield Vet Center",
        "facility_type" : "vet_center",
        "website" : "https://www.va.gov/springfield-ma-vet-center/",
        "lat" : 42.13903409,
        "long" : -72.62448048,
        "time_zone" : "America/New_York",
        "address" : {
          "physical" : {
            "zip" : "01089-1352",
            "city" : "West Springfield",
            "state" : "MA",
            "address_1" : "95A Ashley Avenue",
            "address_2" : "Suite A"
          }
        },
        "phone" : {
          "fax" : "413-733-0537",
          "main" : "413-737-5167"
        },
        "hours" : {
          "Monday" : "800AM-500PM",
          "Tuesday" : "800AM-500PM",
          "Wednesday" : "800AM-500PM",
          "Thursday" : "800AM-500PM",
          "Friday" : "800AM-500PM",
          "Saturday" : "Closed",
          "Sunday" : "Closed"
        },
        "operational_hours_special_instructions" : [
          "If you need to talk to someone or get advice right away, call the Vet Center anytime at 1-877-WAR-VETS (1-877-927-8387)."
        ],
        "mobile" : false,
        "active_status" : "A",
        "operating_status" : {
          "code" : "NORMAL"
        },
        "visn" : "1"
      }
    },
    {
      "id" : "vc_0104V",
      "type" : "va_facilities",
      "attributes" : {
        "name" : "Brockton Vet Center",
        "facility_type" : "vet_center",
        "lat" : 42.05304251,
        "long" : -71.06686558,
        "time_zone" : "America/New_York",
        "address" : {
          "physical" : {
            "zip" : "02301-5400",
            "city" : "Brockton",
            "state" : "MA",
            "address_1" : "1041L Pearl Street",
            "address_2" : "Suite L"
          }
        },
        "phone" : {
          "fax" : "508-586-8414",
          "main" : "508-580-2730"
        },
        "hours" : {
          "Monday" : "800AM-800PM",
          "Tuesday" : "800AM-800PM",
          "Wednesday" : "800AM-800PM",
          "Thursday" : "800AM-800PM",
          "Friday" : "800AM-530PM",
          "Saturday" : "Closed",
          "Sunday" : "Closed"
        },
        "operational_hours_special_instructions" : [
          "More hours are available for some services. To learn more, call our main phone number."
        ],
        "mobile" : false,
        "active_status" : "A",
        "operating_status" : {
          "code" : "NORMAL"
        },
        "visn" : "1"
      }
    },
    {
      "id" : "vc_0105V",
      "type" : "va_facilities",
      "attributes" : {
        "name" : "Brooklyn Vet Center",
        "facility_type" : "vet_center",
        "lat" : 40.6972586,
        "long" : -73.98586968,
        "time_zone" : "America/New_York",
        "address" : {
          "physical" : {
            "zip" : "11201-1954",
            "city" : "Brooklyn",
            "state" : "NY",
            "address_1" : "25 Chapel Street",
            "address_2" : "Suite 604"
          }
        },
        "phone" : {
          "fax" : "718-624-3323",
          "main" : "718-630-2830"
        },
        "hours" : {
          "Monday" : "830AM-700PM",
          "Tuesday" : "830AM-500PM",
          "Wednesday" : "830AM-700PM",
          "Thursday" : "830AM-800PM",
          "Friday" : "830AM-500PM",
          "Saturday" : "Closed",
          "Sunday" : "Closed"
        },
        "operational_hours_special_instructions" : [
          "More hours are available for some services. To learn more, call our main phone number."
        ],
        "mobile" : false,
        "active_status" : "A",
        "operating_status" : {
          "code" : "NORMAL"
        },
        "visn" : "2"
      }
    },
    {
      "id" : "vc_0106V",
      "type" : "va_facilities",
      "attributes" : {
        "name" : "Manhattan Vet Center",
        "facility_type" : "vet_center",
        "website" : "https://www.va.gov/manhattan-ny-vet-center/",
        "lat" : 40.70596048,
        "long" : -74.01313618,
        "time_zone" : "America/New_York",
        "address" : {
          "physical" : {
            "zip" : "10004-1637",
            "city" : "New York",
            "state" : "NY",
            "address_1" : "32 Broadway",
            "address_2" : "2nd Floor, Suite 200"
          }
        },
        "phone" : {
          "fax" : "212-742-9593",
          "main" : "212-951-6866"
        },
        "hours" : {
          "Monday" : "900AM-530PM",
          "Tuesday" : "800AM-430PM",
          "Wednesday" : "800AM-430PM",
          "Thursday" : "800AM-430PM",
          "Friday" : "800AM-430PM",
          "Saturday" : "Closed",
          "Sunday" : "Closed"
        },
        "operational_hours_special_instructions" : [
          "More hours are available for some services. To learn more, call our main phone number.",
          "If you need to talk to someone or get advice right away, call the Vet Center anytime at 1-877-WAR-VETS (1-877-927-8387)."
        ],
        "mobile" : false,
        "active_status" : "A",
        "operating_status" : {
          "code" : "NORMAL"
        },
        "visn" : "2"
      }
    },
    {
      "id" : "vc_0107V",
      "type" : "va_facilities",
      "attributes" : {
        "name" : "Buffalo Vet Center",
        "facility_type" : "vet_center",
        "lat" : 43.023349,
        "long" : -78.79903,
        "time_zone" : "America/New_York",
        "address" : {
          "physical" : {
            "zip" : "14228-1164",
            "city" : "Amherst",
            "state" : "NY",
            "address_1" : "2372 Sweet Home Road",
            "address_2" : "Suite 1"
          }
        },
        "phone" : {
          "fax" : "716-691-6450",
          "main" : "716-862-7350"
        },
        "hours" : {
          "Monday" : "800AM-430PM",
          "Tuesday" : "800AM-430PM",
          "Wednesday" : "800AM-430PM",
          "Thursday" : "800AM-430PM",
          "Friday" : "800AM-430PM",
          "Saturday" : "Closed",
          "Sunday" : "Closed"
        },
        "operational_hours_special_instructions" : [
          "If you need to talk to someone or get advice right away, call the Vet Center anytime at 1-877-WAR-VETS (1-877-927-8387)."
        ],
        "mobile" : false,
        "active_status" : "A",
        "operating_status" : {
          "code" : "NORMAL"
        },
        "visn" : "2"
      }
    },
    {
      "id" : "vc_0108V",
      "type" : "va_facilities",
      "attributes" : {
        "name" : "Manchester Vet Center",
        "facility_type" : "vet_center",
        "lat" : 43.07031789,
        "long" : -71.45021261,
        "time_zone" : "America/New_York",
        "address" : {
          "physical" : {
            "zip" : "03106-1882",
            "city" : "Hooksett",
            "state" : "NH",
            "address_1" : "1461 Hooksett Road",
            "address_2" : "Suite B7"
          }
        },
        "phone" : {
          "fax" : "603-629-3208",
          "main" : "603-668-7060"
        },
        "hours" : {
          "Monday" : "800AM-830PM",
          "Tuesday" : "800AM-730PM",
          "Wednesday" : "800AM-730PM",
          "Thursday" : "800AM-730PM",
          "Friday" : "800AM-530PM",
          "Saturday" : "Closed",
          "Sunday" : "Closed"
        },
        "operational_hours_special_instructions" : [
          "More hours are available for some services. To learn more, call our main phone number."
        ],
        "mobile" : false,
        "active_status" : "A",
        "operating_status" : {
          "code" : "NORMAL"
        },
        "visn" : "1"
      }
    },
    {
      "id" : "vha_586GF",
      "type" : "va_facilities",
      "attributes" : {
        "name" : "Columbus VA Clinic",
        "facility_type" : "va_health_facility",
        "classification" : "Primary Care CBOC",
        "parent" : {
          "id" : "vha_586",
          "link" : "http://localhost:8085/v1/facilities/vha_586GA"
        },
        "website" : "https://www.va.gov/jackson-health-care/locations/columbus-va-clinic/",
        "lat" : 33.493273,
        "long" : -88.36569092,
        "time_zone" : "America/Chicago",
        "address" : {
          "physical" : {
            "zip" : "39702-5436",
            "city" : "Columbus",
            "state" : "MS",
            "address_1" : "824 Alabama Street"
          }
        },
        "phone" : {
          "fax" : "662-244-0395",
          "main" : "662-244-0391",
          "pharmacy" : "800-949-1009 x51352",
          "after_hours" : "800-949-1009 x57915",
          "patient_advocate" : "800-949-1009 x51253",
          "mental_health_clinic" : "662-244-0391",
          "enrollment_coordinator" : "800-949-1009 x51511"
        },
        "hours" : {
          "Monday" : "800AM-430PM",
          "Tuesday" : "800AM-430PM",
          "Wednesday" : "800AM-430PM",
          "Thursday" : "800AM-430PM",
          "Friday" : "800AM-430PM",
          "Saturday" : "Closed",
          "Sunday" : "Closed"
        },
        "services" : {
          "health" : [
            "EmergencyCare",
            "MentalHealthCare",
            "PrimaryCare",
            "SpecialtyCare"
          ],
          "last_updated" : "2020-03-09"
        },
        "satisfaction" : {
          "health" : {
            "primary_care_urgent" : 0.8999999761581421,
            "primary_care_routine" : 0.9700000286102295
          },
          "effective_date" : "2019-06-20"
        },
        "wait_times" : {
          "health" : [
            {
              "service" : "MentalHealthCare",
              "new" : 9.2,
              "established" : 4.245614
            },
            {
              "service" : "PrimaryCare",
              "new" : 11.052631,
              "established" : 1.628895
            },
            {
              "service" : "SpecialtyCare",
              "new" : 13.666666,
              "established" : 22.0
            }
          ],
          "effective_date" : "2020-03-09"
        },
        "mobile" : false,
        "active_status" : "A",
        "operating_status" : {
          "code" : "NORMAL"
        },
        "visn" : "16"
      }
    },
    {
      "id" : "vha_586GG",
      "type" : "va_facilities",
      "attributes" : {
        "name" : "McComb VA Clinic",
        "facility_type" : "va_health_facility",
        "classification" : "Primary Care CBOC",
        "parent" : {
          "id" : "vha_586",
          "link" : "http://localhost:8085/v1/facilities/vha_586GA"
        },
        "website" : "https://www.va.gov/jackson-health-care/locations/mccomb-va-clinic/",
        "lat" : 31.24942827,
        "long" : -90.46808065,
        "time_zone" : "America/Chicago",
        "address" : {
          "physical" : {
            "zip" : "39648-2830",
            "city" : "McComb",
            "state" : "MS",
            "address_1" : "1308 Harrison Avenue"
          }
        },
        "phone" : {
          "fax" : "601-250-5761",
          "main" : "601-250-0965",
          "pharmacy" : "800-949-1009 x51352",
          "after_hours" : "800-949-1009 x57915",
          "patient_advocate" : "800-949-1009 x51253",
          "mental_health_clinic" : "601-250-0965",
          "enrollment_coordinator" : "800-949-1009 x51511"
        },
        "hours" : {
          "Monday" : "800AM-430PM",
          "Tuesday" : "800AM-430PM",
          "Wednesday" : "800AM-430PM",
          "Thursday" : "800AM-430PM",
          "Friday" : "800AM-430PM",
          "Saturday" : "Closed",
          "Sunday" : "Closed"
        },
        "services" : {
          "health" : [
            "EmergencyCare",
            "MentalHealthCare",
            "PrimaryCare"
          ],
          "last_updated" : "2020-03-09"
        },
        "satisfaction" : {
          "health" : {
            "primary_care_routine" : 0.9399999976158142
          },
          "effective_date" : "2019-06-20"
        },
        "wait_times" : {
          "health" : [
            {
              "service" : "MentalHealthCare",
              "new" : 21.2,
              "established" : 5.368421
            },
            {
              "service" : "PrimaryCare",
              "new" : 6.9375,
              "established" : 2.656084
            }
          ],
          "effective_date" : "2020-03-09"
        },
        "mobile" : false,
        "active_status" : "A",
        "operating_status" : {
          "code" : "NORMAL"
        },
        "visn" : "16"
      }
    }
  ],
  "links" : {
    "self" : "http://localhost:8085/v1/facilities?page=1&per_page=10",
    "first" : "http://localhost:8085/v1/facilities?page=1&per_page=10",
    "next" : "http://localhost:8085/v1/facilities?page=2&per_page=10",
    "last" : "http://localhost:8085/v1/facilities?page=249&per_page=10"
  },
  "meta" : {
    "pagination" : {
      "current_page" : 1,
      "per_page" : 10,
      "total_pages" : 249,
      "total_entries" : 2485
    }
  }
}
