{
  "data" : [
    {
      "id" : "vha_675GA",
      "type" : "va_facilities",
      "attributes" : {
        "name" : "Viera VA Clinic",
        "facility_type" : "va_health_facility",
        "classification" : "Health Care Center (HCC)",
        "website" : "https://www.orlando.va.gov/locations/Viera.asp",
        "lat" : 28.2552385700001,
        "long" : -80.73907113,
        "address" : {
          "mailing" : { },
          "physical" : {
            "zip" : "32940-8007",
            "city" : "Viera",
            "state" : "FL",
            "address_1" : "2900 Veterans Way",
            "address_2" : null,
            "address_3" : null
          }
        },
        "phone" : {
          "fax" : "321-637-3515",
          "main" : "321-637-3788",
          "pharmacy" : "877-646-4550",
          "after_hours" : "877-741-3400",
          "patient_advocate" : "407-631-1187",
          "mental_health_clinic" : "321-637-3788",
          "enrollment_coordinator" : "321-637-3527"
        },
        "hours" : {
          "friday" : "730AM-430PM",
          "monday" : "730AM-430PM",
          "sunday" : "Closed",
          "tuesday" : "730AM-430PM",
          "saturday" : "Closed",
          "thursday" : "730AM-430PM",
          "wednesday" : "730AM-430PM"
        },
        "operational_hours_special_instructions" : "Administrative hours are Monday-Friday 8:00 a.m. to 4:30 p.m.",
        "services" : {
          "other" : [ ],
          "health" : [
            "PrimaryCare",
            "MentalHealthCare",
            "Audiology",
            "Cardiology",
            "Dermatology",
            "Gastroenterology",
            "Ophthalmology",
            "Optometry",
            "Orthopedics",
            "Urology",
            "SpecialtyCare",
            "DentalServices"
          ],
          "last_updated" : "2020-03-02"
        },
        "satisfaction" : {
          "health" : {
            "primary_care_urgent" : 0.74,
            "primary_care_routine" : 0.83
          },
          "effective_date" : "2019-06-20"
        },
        "wait_times" : {
          "health" : [
            {
              "service" : "Urology",
              "new" : 32.047619,
              "established" : 9.879032
            },
            {
              "service" : "Audiology",
              "new" : 1.706967,
              "established" : 2.126855
            },
            {
              "service" : "Optometry",
              "new" : 76.396226,
              "established" : 7.900787
            },
            {
              "service" : "Cardiology",
              "new" : 18.657142,
              "established" : 6.4
            },
            {
              "service" : "Dermatology",
              "new" : 0.616666,
              "established" : 0.555555
            },
            {
              "service" : "Orthopedics",
              "new" : 24.682539,
              "established" : 4.995024
            },
            {
              "service" : "PrimaryCare",
              "new" : 26.405405,
              "established" : 1.545372
            },
            {
              "service" : "Ophthalmology",
              "new" : 47.571428,
              "established" : 3.258992
            },
            {
              "service" : "SpecialtyCare",
              "new" : 20.963572,
              "established" : 5.775406
            },
            {
              "service" : "Gastroenterology",
              "new" : 22.151515,
              "established" : 4.943661
            },
            {
              "service" : "MentalHealthCare",
              "new" : 7.592814,
              "established" : 3.97159
            }
          ],
          "effective_date" : "2020-03-02"
        },
        "mobile" : false,
        "active_status" : "A",
        "operating_status" : {
          "code" : "NORMAL"
        },
        "detailed_services" : null,
        "visn" : "8"
      }
    },
    {
      "id" : "vc_0332V",
      "type" : "va_facilities",
      "attributes" : {
        "name" : "Melbourne Vet Center",
        "facility_type" : "vet_center",
        "classification" : null,
        "website" : null,
        "lat" : 28.12169212,
        "long" : -80.65539095,
        "address" : {
          "mailing" : { },
          "physical" : {
            "zip" : "32935",
            "city" : "Melbourne",
            "state" : "FL",
            "address_1" : "2098 Sarno Road",
            "address_2" : null,
            "address_3" : null
          }
        },
        "phone" : {
          "main" : "321-254-3410"
        },
        "hours" : {
          "friday" : "800AM-630PM",
          "monday" : "800AM-630PM",
          "sunday" : "Closed",
          "tuesday" : "800AM-630PM",
          "saturday" : "800AM-630PM",
          "thursday" : "800AM-630PM",
          "wednesday" : "800AM-630PM"
        },
        "operational_hours_special_instructions" : "Administrative hours are Monday-Friday 8:00 a.m. to 4:30 p.m.",
        "services" : { },
        "satisfaction" : { },
        "wait_times" : { },
        "mobile" : null,
        "active_status" : null,
        "operating_status" : {
          "code" : "NORMAL"
        },
        "detailed_services" : null,
        "visn" : null
      }
    },
    {
      "id" : "nca_934",
      "type" : "va_facilities",
      "attributes" : {
        "name" : "Cape Canaveral",
        "facility_type" : "va_cemetery",
        "classification" : "National Cemetery",
        "website" : "https://www.cem.va.gov/cems/nchp/capecanaveral.asp",
        "lat" : 28.7551827,
        "long" : -80.8738888,
        "address" : {
          "mailing" : {
            "zip" : "32754-4826",
            "city" : "Mims",
            "state" : "FL",
            "address_1" : "5525 U.S. Highway 1",
            "address_2" : null,
            "address_3" : null
          },
          "physical" : {
            "zip" : "32754-4826",
            "city" : "Mims",
            "state" : "FL",
            "address_1" : "5525 U.S. Highway 1",
            "address_2" : null,
            "address_3" : null
          }
        },
        "phone" : {
          "fax" : "321-383-2642",
          "main" : null
        },
        "hours" : {
          "friday" : "Sunrise - Sunset",
          "monday" : "Sunrise - Sunset",
          "sunday" : "Sunrise - Sunset",
          "tuesday" : "Sunrise - Sunset",
          "saturday" : "Sunrise - Sunset",
          "thursday" : "Sunrise - Sunset",
          "wednesday" : "Sunrise - Sunset"
        },
        "operational_hours_special_instructions" : "Administrative hours are Monday-Friday 8:00 a.m. to 4:30 p.m.",
        "services" : { },
        "satisfaction" : { },
        "wait_times" : { },
        "mobile" : null,
        "active_status" : null,
        "operating_status" : {
          "code" : "NORMAL"
        },
        "detailed_services" : null,
        "visn" : null
      }
    },
    {
      "id" : "vha_675",
      "type" : "va_facilities",
      "attributes" : {
        "name" : "Orlando VA Medical Center",
        "facility_type" : "va_health_facility",
        "classification" : "VA Medical Center (VAMC)",
        "website" : "https://www.orlando.va.gov/locations/directions.asp",
        "lat" : 28.3666915700001,
        "long" : -81.27650339,
        "address" : {
          "mailing" : { },
          "physical" : {
            "zip" : "32827-5812",
            "city" : "Orlando",
            "state" : "FL",
            "address_1" : "13800 Veterans Way",
            "address_2" : null,
            "address_3" : null
          }
        },
        "phone" : {
          "fax" : "407-631-0100",
          "main" : "407-631-1000",
          "pharmacy" : "407-646-4500",
          "after_hours" : "877-741-3400",
          "patient_advocate" : "407-631-1187",
          "mental_health_clinic" : "407-631-2050",
          "enrollment_coordinator" : "407-631-1060"
        },
        "hours" : {
          "friday" : "24/7",
          "monday" : "24/7",
          "sunday" : "24/7",
          "tuesday" : "24/7",
          "saturday" : "24/7",
          "thursday" : "24/7",
          "wednesday" : "24/7"
        },
        "operational_hours_special_instructions" : "Administrative hours are Monday-Friday 8:00 a.m. to 4:30 p.m.",
        "services" : {
          "other" : [ ],
          "health" : [
            "PrimaryCare",
            "MentalHealthCare",
            "WomensHealth",
            "Audiology",
            "Cardiology",
            "Dermatology",
            "Gastroenterology",
            "Gynecology",
            "Ophthalmology",
            "Optometry",
            "Orthopedics",
            "Urology",
            "SpecialtyCare",
            "DentalServices"
          ],
          "last_updated" : "2020-03-02"
        },
        "satisfaction" : {
          "health" : {
            "primary_care_urgent" : 0.59,
            "primary_care_routine" : 0.77,
            "specialty_care_urgent" : 0.76,
            "specialty_care_routine" : 0.83
          },
          "effective_date" : "2019-06-20"
        },
        "wait_times" : {
          "health" : [
            {
              "service" : "Urology",
              "new" : 47.070707,
              "established" : 12.413793
            },
            {
              "service" : "Audiology",
              "new" : 5.071748,
              "established" : 2.271653
            },
            {
              "service" : "Optometry",
              "new" : 43.336956,
              "established" : 5.958219
            },
            {
              "service" : "Cardiology",
              "new" : 35.310077,
              "established" : 8.611954
            },
            {
              "service" : "Gynecology",
              "new" : 27.01923,
              "established" : 3.189224
            },
            {
              "service" : "Dermatology",
              "new" : 19.019455,
              "established" : 2.363431
            },
            {
              "service" : "Orthopedics",
              "new" : 12.795918,
              "established" : 3.948827
            },
            {
              "service" : "PrimaryCare",
              "new" : 24.316455,
              "established" : 3.277552
            },
            {
              "service" : "Ophthalmology",
              "new" : 12.04,
              "established" : 5.528089
            },
            {
              "service" : "WomensHealth",
              "new" : 25.266666,
              "established" : 1.987108
            },
            {
              "service" : "SpecialtyCare",
              "new" : 27.407073,
              "established" : 7.268115
            },
            {
              "service" : "Gastroenterology",
              "new" : 51.232472,
              "established" : 21.89198
            },
            {
              "service" : "MentalHealthCare",
              "new" : 10.421052,
              "established" : 6.068493
            }
          ],
          "effective_date" : "2020-03-02"
        },
        "mobile" : false,
        "active_status" : "A",
        "operating_status" : {
          "code" : "NORMAL"
        },
        "detailed_services" : null,
        "visn" : "8"
      }
    },
    {
      "id" : "vba_317n",
      "type" : "va_facilities",
      "attributes" : {
        "name" : "Lake Nona Vocational Rehabilitation & Employment office",
        "facility_type" : "va_benefits_facility",
        "classification" : "Voc Rehab And Employment",
        "website" : "NULL",
        "lat" : 28.36758244,
        "long" : -81.27709119,
        "address" : {
          "mailing" : { },
          "physical" : {
            "zip" : "32827",
            "city" : "Orlando",
            "state" : "FL",
            "address_1" : "13800 Veterans Way",
            "address_2" : "VBA Room #C102",
            "address_3" : null
          }
        },
        "phone" : {
          "fax" : "407-631-1971",
          "main" : "407-631-1645"
        },
        "hours" : {
          "friday" : "8:00AM-4:00PM",
          "monday" : "8:00AM-4:00PM",
          "sunday" : "Closed",
          "tuesday" : "8:00AM-4:00PM",
          "saturday" : "Closed",
          "thursday" : "8:00AM-4:00PM",
          "wednesday" : "8:00AM-4:00PM"
        },
        "operational_hours_special_instructions" : "Administrative hours are Monday-Friday 8:00 a.m. to 4:30 p.m.",
        "services" : {
          "benefits" : [
            "ApplyingForBenefits",
            "BurialClaimAssistance",
            "DisabilityClaimAssistance",
            "eBenefitsRegistrationAssistance",
            "EducationAndCareerCounseling",
            "HomelessAssistance",
            "IntegratedDisabilityEvaluationSystemAssistance",
            "UpdatingDirectDepositInformation",
            "VocationalRehabilitationAndEmploymentAssistance"
          ]
        },
        "satisfaction" : { },
        "wait_times" : { },
        "mobile" : null,
        "active_status" : null,
        "operating_status" : {
          "code" : "NORMAL"
        },
        "detailed_services" : null,
        "visn" : null
      }
    },
    {
      "id" : "vc_0314V",
      "type" : "va_facilities",
      "attributes" : {
        "name" : "Orlando Vet Center",
        "facility_type" : "vet_center",
        "classification" : null,
        "website" : null,
        "lat" : 28.48229037,
        "long" : -81.30999967,
        "address" : {
          "mailing" : { },
          "physical" : {
            "zip" : "32822",
            "city" : "Orlando",
            "state" : "FL",
            "address_1" : "5575 South Semoran Boulevard",
            "address_2" : "Suite 30",
            "address_3" : null
          }
        },
        "phone" : {
          "main" : "407-857-2800"
        },
        "hours" : {
          "friday" : "800AM-430PM",
          "monday" : "800AM-630PM",
          "sunday" : "Closed",
          "tuesday" : "800AM-630PM",
          "saturday" : "Closed",
          "thursday" : "800AM-630PM",
          "wednesday" : "800AM-630PM"
        },
        "operational_hours_special_instructions" : "Administrative hours are Monday-Friday 8:00 a.m. to 4:30 p.m.",
        "services" : { },
        "satisfaction" : { },
        "wait_times" : { },
        "mobile" : null,
        "active_status" : null,
        "operating_status" : {
          "code" : "NORMAL"
        },
        "detailed_services" : null,
        "visn" : null
      }
    },
    {
      "id" : "vha_675QD",
      "type" : "va_facilities",
      "attributes" : {
        "name" : "Crossroads VA Clinic",
        "facility_type" : "va_health_facility",
        "classification" : "Other Outpatient Services (OOS)",
        "website" : "https://www.orlando.va.gov/locations/Crossroads.asp",
        "lat" : 28.5845601300001,
        "long" : -81.3068096,
        "address" : {
          "mailing" : { },
          "physical" : {
            "zip" : "32792-5313",
            "city" : "Winter Park",
            "state" : "FL",
            "address_1" : "925 South Semoran Boulevard",
            "address_2" : null,
            "address_3" : "Suites 112, 114 and 120"
          }
        },
        "phone" : {
          "fax" : "407-621-2671",
          "main" : "407-621-2600",
          "pharmacy" : "877-646-4550",
          "after_hours" : "877-741-3400",
          "patient_advocate" : "407-631-1187",
          "enrollment_coordinator" : "407-631-1060"
        },
        "hours" : {
          "friday" : "800AM-400PM",
          "monday" : "800AM-400PM",
          "sunday" : "Closed",
          "tuesday" : "800AM-400PM",
          "saturday" : "Closed",
          "thursday" : "800AM-400PM",
          "wednesday" : "800AM-400PM"
        },
        "operational_hours_special_instructions" : "Administrative hours are Monday-Friday 8:00 a.m. to 4:30 p.m.",
        "services" : {
          "other" : [ ],
          "health" : [
            "MentalHealthCare",
            "SpecialtyCare"
          ],
          "last_updated" : "2020-03-02"
        },
        "satisfaction" : {
          "health" : { },
          "effective_date" : null
        },
        "wait_times" : {
          "health" : [
            {
              "service" : "SpecialtyCare",
              "new" : 0.0,
              "established" : 16.16
            },
            {
              "service" : "MentalHealthCare",
              "new" : 25.642857,
              "established" : 4.24969
            }
          ],
          "effective_date" : "2020-03-02"
        },
        "mobile" : false,
        "active_status" : "A",
        "operating_status" : {
          "code" : "NORMAL"
        },
        "detailed_services" : null,
        "visn" : "8"
      }
    },
    {
      "id" : "vha_548GE",
      "type" : "va_facilities",
      "attributes" : {
        "name" : "Vero Beach VA Clinic",
        "facility_type" : "va_health_facility",
        "classification" : "Primary Care CBOC",
        "website" : "https://www.westpalmbeach.va.gov/locations/Vero_Beach_CBOC.asp",
        "lat" : 27.6325183800001,
        "long" : -80.38028023,
        "address" : {
          "mailing" : { },
          "physical" : {
            "zip" : "32960-5690",
            "city" : "Vero Beach",
            "state" : "FL",
            "address_1" : "372 17th Street",
            "address_2" : null,
            "address_3" : null
          }
        },
        "phone" : {
          "fax" : "772-299-4632",
          "main" : "772-299-4623",
          "pharmacy" : "800-317-8387",
          "after_hours" : "877-741-3400",
          "patient_advocate" : "561-422-8600",
          "mental_health_clinic" : "772-299-4623",
          "enrollment_coordinator" : "561-422-6838"
        },
        "hours" : {
          "friday" : "800AM-430PM",
          "monday" : "800AM-430PM",
          "sunday" : "Closed",
          "tuesday" : "800AM-430PM",
          "saturday" : "Closed",
          "thursday" : "800AM-430PM",
          "wednesday" : "800AM-430PM"
        },
        "operational_hours_special_instructions" : "Administrative hours are Monday-Friday 8:00 a.m. to 4:30 p.m.",
        "services" : {
          "other" : [ ],
          "health" : [
            "PrimaryCare",
            "MentalHealthCare",
            "Dermatology",
            "SpecialtyCare"
          ],
          "last_updated" : "2020-03-02"
        },
        "satisfaction" : {
          "health" : {
            "primary_care_urgent" : 0.91,
            "primary_care_routine" : 0.91
          },
          "effective_date" : "2019-06-20"
        },
        "wait_times" : {
          "health" : [
            {
              "service" : "Dermatology",
              "new" : 0.333333,
              "established" : 0.0
            },
            {
              "service" : "PrimaryCare",
              "new" : 20.51282,
              "established" : 3.017211
            },
            {
              "service" : "SpecialtyCare",
              "new" : 6.153846,
              "established" : 1.0
            },
            {
              "service" : "MentalHealthCare",
              "new" : 11.545454,
              "established" : 2.233576
            }
          ],
          "effective_date" : "2020-03-02"
        },
        "mobile" : false,
        "active_status" : "A",
        "operating_status" : {
          "code" : "NORMAL"
        },
        "detailed_services" : null,
        "visn" : "8"
      }
    },
    {
      "id" : "vha_675GC",
      "type" : "va_facilities",
      "attributes" : {
        "name" : "Kissimmee VA Clinic",
        "facility_type" : "va_health_facility",
        "classification" : "Primary Care CBOC",
        "website" : "https://www.orlando.va.gov/locations/Kissimmee.asp",
        "lat" : 28.3128777100001,
        "long" : -81.40857002,
        "address" : {
          "mailing" : { },
          "physical" : {
            "zip" : "34741-2342",
            "city" : "Kissimmee",
            "state" : "FL",
            "address_1" : "2285 North Central Avenue",
            "address_2" : null,
            "address_3" : null
          }
        },
        "phone" : {
          "fax" : "407-932-7012",
          "main" : "407-518-5004",
          "pharmacy" : "407-599-1404",
          "after_hours" : "877-741-3400",
          "patient_advocate" : "407-631-1187",
          "mental_health_clinic" : "407-518-5004",
          "enrollment_coordinator" : "407-631-1060"
        },
        "hours" : {
          "friday" : "730AM-430PM",
          "monday" : "730AM-430PM",
          "sunday" : "Closed",
          "tuesday" : "730AM-430PM",
          "saturday" : "Closed",
          "thursday" : "730AM-430PM",
          "wednesday" : "730AM-430PM"
        },
        "operational_hours_special_instructions" : "Administrative hours are Monday-Friday 8:00 a.m. to 4:30 p.m.",
        "services" : {
          "other" : [ ],
          "health" : [
            "PrimaryCare",
            "MentalHealthCare",
            "Dermatology",
            "SpecialtyCare"
          ],
          "last_updated" : "2020-03-02"
        },
        "satisfaction" : {
          "health" : {
            "primary_care_urgent" : 0.83,
            "primary_care_routine" : 0.89
          },
          "effective_date" : "2019-06-20"
        },
        "wait_times" : {
          "health" : [
            {
              "service" : "Dermatology",
              "new" : 1.5,
              "established" : null
            },
            {
              "service" : "PrimaryCare",
              "new" : 8.94,
              "established" : 2.66054
            },
            {
              "service" : "SpecialtyCare",
              "new" : 1.928571,
              "established" : 0.0
            },
            {
              "service" : "MentalHealthCare",
              "new" : 40.117647,
              "established" : 6.576368
            }
          ],
          "effective_date" : "2020-03-02"
        },
        "mobile" : false,
        "active_status" : "A",
        "operating_status" : {
          "code" : "NORMAL"
        },
        "detailed_services" : null,
        "visn" : "8"
      }
    },
    {
      "id" : "vha_675GG",
      "type" : "va_facilities",
      "attributes" : {
        "name" : "Lake Baldwin VA Clinic",
        "facility_type" : "va_health_facility",
        "classification" : "VA Medical Center (VAMC)",
        "website" : "https://www.orlando.va.gov/locations/LakeBaldwin.asp",
        "lat" : 28.57912757,
        "long" : -81.32166083,
        "address" : {
          "mailing" : { },
          "physical" : {
            "zip" : "32803-8208",
            "city" : "Orlando",
            "state" : "FL",
            "address_1" : "5201 Raymond Street",
            "address_2" : null,
            "address_3" : null
          }
        },
        "phone" : {
          "fax" : "407-513-9636",
          "main" : "407-646-5500",
          "pharmacy" : "407-646-5500 x25990",
          "after_hours" : "407-646-5500",
          "patient_advocate" : "407-646-5035",
          "mental_health_clinic" : "407-646-5400",
          "enrollment_coordinator" : "407-646-6130"
        },
        "hours" : {
          "friday" : "800AM-430PM",
          "monday" : "800AM-430PM",
          "sunday" : "Closed",
          "tuesday" : "800AM-430PM",
          "saturday" : "Closed",
          "thursday" : "800AM-430PM",
          "wednesday" : "800AM-430PM"
        },
        "operational_hours_special_instructions" : "Administrative hours are Monday-Friday 8:00 a.m. to 4:30 p.m.",
        "services" : {
          "other" : [ ],
          "health" : [
            "PrimaryCare",
            "MentalHealthCare",
            "WomensHealth",
            "Audiology",
            "Gynecology",
            "Optometry",
            "SpecialtyCare"
          ],
          "last_updated" : "2020-03-02"
        },
        "satisfaction" : {
          "health" : {
            "primary_care_urgent" : 0.79,
            "primary_care_routine" : 0.81
          },
          "effective_date" : "2019-06-20"
        },
        "wait_times" : {
          "health" : [
            {
              "service" : "Audiology",
              "new" : 4.0,
              "established" : 1.094091
            },
            {
              "service" : "Optometry",
              "new" : 72.475247,
              "established" : 11.642248
            },
            {
              "service" : "Gynecology",
              "new" : 5.0,
              "established" : 1.210355
            },
            {
              "service" : "PrimaryCare",
              "new" : 14.460526,
              "established" : 1.34292
            },
            {
              "service" : "WomensHealth",
              "new" : 5.0,
              "established" : 1.210355
            },
            {
              "service" : "SpecialtyCare",
              "new" : 18.511966,
              "established" : 7.533425
            },
            {
              "service" : "MentalHealthCare",
              "new" : 16.468926,
              "established" : 4.563762
            }
          ],
          "effective_date" : "2020-03-02"
        },
        "mobile" : false,
        "active_status" : "A",
        "operating_status" : {
          "code" : "NORMAL"
        },
        "detailed_services" : null,
        "visn" : "8"
      }
    }
  ],
  "links" : {
    "self" : "https://dev-api.vets.gov/services/va_facilities/v0/facilities?bbox%5B%5D=-81.47&bbox%5B%5D=27.48&bbox%5B%5D=-79.97&bbox%5B%5D=28.98",
    "first" : "https://dev-api.vets.gov/services/va_facilities/v0/facilities?bbox%5B%5D=-81.47&bbox%5B%5D=27.48&bbox%5B%5D=-79.97&bbox%5B%5D=28.98&page=1&per_page=10",
    "prev" : null,
    "next" : "https://dev-api.vets.gov/services/va_facilities/v0/facilities?bbox%5B%5D=-81.47&bbox%5B%5D=27.48&bbox%5B%5D=-79.97&bbox%5B%5D=28.98&page=2&per_page=10",
    "last" : "https://dev-api.vets.gov/services/va_facilities/v0/facilities?bbox%5B%5D=-81.47&bbox%5B%5D=27.48&bbox%5B%5D=-79.97&bbox%5B%5D=28.98&page=2&per_page=10"
  },
  "meta" : {
    "pagination" : {
      "current_page" : 1,
      "per_page" : 10,
      "total_pages" : 2,
      "total_entries" : 13
    },
    "distances" : [ ]
  }
}
